government = monarchy
add_government_reform = autocracy_reform
government_rank = 1
primary_culture = tuathak
religion = eordellon
technology_group = tech_eordand
capital = 1965
historical_rival = H16
historical_friend = H13

1000.1.1 = { set_country_flag = mage_organization_decentralized_flag }

1428.3.10 = {
	monarch = {
		name = "Jhorgas"
		dynasty = "Frostguard"
		adm = 3
		dip = 3
		mil = 4
		birth_date = 1420.3.10
	}
	add_ruler_personality = mage_personality
	set_ruler_flag = transmutation_1
	set_ruler_flag = abjuration_1
	add_ruler_personality = bold_fighter_personality
	heir = {
		name = "Jahair"
		monarch_name = "Jahair I"
		dynasty = "Frostguard"
		birth_date = 1438.2.11
		death_date = 1481.3.2
		claim = 95
		adm = 2
		dip = 3
		mil = 3
	}
	queen = {
		country_of_origin = H13
		name = "Allara"
		dynasty = "Elmtree"
		birth_date = 1421.5.20
		death_date = 1475.4.10
		female = yes
		adm = 2
		dip = 2
		mil = 3
	}
}


