######################################################################
# The five rebel types used by the game engine
######################################################################
# Valid arguments:
#
# area = [nation/nation_rebel_tag/nation_religion]
# government = [monarchy/republic/theocracy/anti/any]
# defection = [culture/culture_group/religion/any/none]
# independence = [culture/culture_group/religion/any/none]
# gfx_type = [culture_province/culture_owner]
#
######################################################################

# All rebels in province scope

# For siege_won_trigger, siege_won_effect
# FROM = owner
# ROOT = province

# For Other
# FROM = owner
# ROOT = Homecountry

#Anbennar Notes
#I've removed mentions of vanilla disasters for now
#Removed religious disasters too