


owner = R62
controller = R62
add_core = R62
culture = hobgoblin
religion = godlost

hre = no

base_tax = 1
base_production = 2
base_manpower = 1

trade_goods = gems

capital = ""

is_city = yes