#WIP

elven_military = {

}

dwarven_military = {

}

gnollish_military = {

}

gnomish_military = {

}

goblin_military = {

}

half_elven_military = {

}

half_orcish_military = {

}

halfling_military = {

}

harpy_military = {

}

human_military = {

}

kobold_military = {

}

orcish_military = {

}

ruinborn_military = {

}

troll_military = {

}