country_decisions = {

	woodelf_nation = {
		major = yes
		potential = {
			primary_culture = wood_elf
			NOT = { exists = I45 }
			normal_or_historical_nations = yes
			was_never_end_game_tag_trigger = yes
			capital_scope = { superregion = deepwoods_superregion }
			
		}
		
		provinces_to_highlight = {
			superregion = deepwoods_superregion
			
			NOT = { country_or_vassal_holds = ROOT }
		}

		allow = {
			NOT = { exists = I45 }
			is_at_war = no
			is_nomad = no
			is_free_or_tributary_trigger = yes
			num_of_provinces_owned_or_owned_by_non_sovereign_subjects_with = {
				value = 35
				superregion = deepwoods_superregion
			}
		}
		effect = {
			change_tag = I45
			swap_non_generic_missions = yes
			remove_non_electors_emperors_from_empire_effect = yes
			if = {
				limit = {
					NOT = { government_rank = 2 }
				}
				set_government_rank = 2
			}
			every_subject_country = {
				limit = {
					primary_culture = wood_elf
					capital_scope = { superregion = deepwoods_superregion }
				}
				every_owned_province = {
					add_core = ROOT
					cede_province = ROOT
				}
			}
			add_country_modifier = {
				name = "centralization_modifier"
				duration = 7300
			}
			add_prestige = 25
			country_event = { id = ideagroups.1 } #Swap Ideas
		}
		ai_will_do = {
			factor = 400
		}
	}
}
