namespace = aelantirspawnables

#Gommoport
country_event = {
	id = aelantirspawnables.1
	title = aelantirspawnables.1.t
	desc = aelantirspawnables.1.d
	picture = CARIBBEAN_PIRATE_FORT_eventPicture
	
	fire_only_once = yes
	
	trigger = {
		has_global_flag = new_world_discovered
		any_province = {
			area = gommiochand_area
			is_empty = yes
			
			#has_discovered = ROOT
			
			has_empty_adjacent_province = yes
		}
		
		is_year = 1570
		
		# OR = {	#sort this out make it so player
			# if = {
				# limit = { 
					# capital_scope = { continent = north_america
				# }
			# }
		# }
	}
	
	mean_time_to_happen = {
		months = 600
		
		modifier = {
			factor = 0.1
			current_age = age_of_revolutions
		}
		modifier = {
			factor = 0.5
			exists = A79 #gnomish hierarchy
		}
		modifier = {
			factor = 0.5
			any_country = {
				capital_scope = { continent = europe }
				has_discovered = 2088
			}
		}
	}
	
	immediate = {
		
		hidden_effect = {
		
		random_province = {
			limit = {
				area = gommiochand_area
				is_empty = yes
				
				has_empty_adjacent_province = yes
				
			}
			
			save_event_target_as = spawn_province
		}
		
		random_province = {
			limit = {
				area = gommiochand_area
				is_empty = yes
				
				has_empty_adjacent_province = yes
				
				has_port = yes
			}
			
			save_event_target_as = spawn_province
		}		

		random_province = {
			limit = {
				area = gommiochand_area
				is_empty = yes
				
				has_empty_adjacent_province = yes
				
				province_id = 2088
			}
			
			save_event_target_as = spawn_province
		}
		
		}
	}
	
	option = {
		name = aelantirspawnables.1.a
		
		event_target:spawn_province = {
			create_colony = 1000
		}
		
		event_target:spawn_province = {
			cede_province = H30
		}
		
		hidden_effect = {
			H30 = {
				country_event = {
					id = anb_miscevents.7
					days = 30
				}
			}
		}
	}
	
	option = { # play as the pirates
		name = aelantirspawnables.1.b
		trigger = {
			ai = no
		}
		event_target:spawn_province = {
			create_colony = 1000
		}
		
		event_target:spawn_province = {
			cede_province = H30
		}

		switch_tag = H30
		
		hidden_effect = {
			H30 = {
				country_event = { 
					id = anb_miscevents.7
					days = 30
				}
			}
		}
		
	}
	

}

#Zurzumexia
country_event = {
	id = aelantirspawnables.2
	title = aelantirspawnables.2.t
	desc = aelantirspawnables.2.d
	picture = CARIBBEAN_PIRATE_FORT_eventPicture
	
	fire_only_once = yes
	
	trigger = {
		has_global_flag = new_world_discovered
		any_province = {
			area = zurzumexia_area
			is_empty = yes
			
			#has_discovered = ROOT
			
			has_empty_adjacent_province = yes
		}
		is_year = 1570
	}
	
	mean_time_to_happen = {
		months = 600
		
		modifier = {
			factor = 0.1
			current_age = age_of_revolutions
		}
		modifier = {
			factor = 0.5
			exists = H30
		}
		modifier = {
			factor = 0.5
			any_country = {
				capital_scope = { continent = europe }
				has_discovered = 2078
			}
		}
	}
	
	immediate = {
	
		hidden_effect = {
	
		random_province = {
			limit = {
				area = zurzumexia_area
				is_empty = yes
				
				has_empty_adjacent_province = yes
				
			}
			
			save_event_target_as = spawn_province
		}
		
		random_province = {
			limit = {
				area = zurzumexia_area
				is_empty = yes
				
				has_empty_adjacent_province = yes
				
				has_port = yes
			}
			
			save_event_target_as = spawn_province
		}		

		random_province = {
			limit = {
				area = zurzumexia_area
				is_empty = yes
				
				has_empty_adjacent_province = yes
				
				province_id = 2078
			}
			
			save_event_target_as = spawn_province
		}
		
		}
	}
	
	option = {
		name = aelantirspawnables.1.a
		
		event_target:spawn_province = {
			create_colony = 1000
		}
		
		event_target:spawn_province = {
			cede_province = H31
		}
	
		hidden_effect = {
			H31 = {
				country_event = {
					id = anb_miscevents.7
					days = 30
				}
			}
		}
	}
	
	option = { # play as the pirates
		name = aelantirspawnables.1.b
		trigger = {
			ai = no
		}
		event_target:spawn_province = {
			create_colony = 1000
		}
		
		event_target:spawn_province = {
			cede_province = H31
		}

		switch_tag = H31
		
		hidden_effect = {
			H31 = {
				country_event = { 
					id = anb_miscevents.7
					days = 30
				}
			}
		}
	}
}


#Mestikardu
country_event = {
	id = aelantirspawnables.3
	title = aelantirspawnables.3.t
	desc = aelantirspawnables.3.d
	picture = CARIBBEAN_PIRATE_FORT_eventPicture
	
	fire_only_once = yes
	
	trigger = {
		has_global_flag = new_world_discovered
		any_province = {
			area = mestiikardu_area
			is_empty = yes
			
			#has_discovered = ROOT
			
			has_empty_adjacent_province = yes
		}
		is_year = 1570
	}
	
	mean_time_to_happen = {
		months = 600
		
		modifier = {
			factor = 0.1
			current_age = age_of_revolutions
		}
		modifier = {
			factor = 0.5
			exists = H30
		}
		modifier = {
			factor = 0.5
			any_country = {
				capital_scope = { continent = europe }
				has_discovered = 2083
			}
		}
	}
	
	immediate = {
		hidden_effect = {
		random_province = {
			limit = {
				area = mestiikardu_area
				is_empty = yes
				
				has_empty_adjacent_province = yes
				
			}
			
			save_event_target_as = spawn_province
		}
		
		random_province = {
			limit = {
				area = mestiikardu_area
				is_empty = yes
				
				has_empty_adjacent_province = yes
				
				has_port = yes
			}
			
			save_event_target_as = spawn_province
		}		

		random_province = {
			limit = {
				area = mestiikardu_area
				is_empty = yes
				
				has_empty_adjacent_province = yes
				
				province_id = 2083
			}
			
			save_event_target_as = spawn_province
		}
		}
	}
	
	option = {
		name = aelantirspawnables.1.a 
		
		event_target:spawn_province = {
			create_colony = 1000
		}
		
		event_target:spawn_province = {
			cede_province = H32
		}
		
		hidden_effect = {
			H32 = {
				country_event = { 
					id = anb_miscevents.7
					days = 30
				}
			}
		}
	}
	
	option = { # play as the pirates
		name = aelantirspawnables.1.b
		trigger = {
			ai = no
		}
		event_target:spawn_province = {
			create_colony = 1000
		}
		
		event_target:spawn_province = {
			cede_province = H32
		}

		switch_tag = H32
		
		hidden_effect = {
			H32 = {
				country_event = { 
					id = anb_miscevents.7
					days = 30
				}
			}
		}
	}
}



#Cestirmark
country_event = {
	id = aelantirspawnables.4
	title = aelantirspawnables.4.t
	desc = aelantirspawnables.4.d
	picture = CARIBBEAN_PIRATE_FORT_eventPicture
	
	fire_only_once = yes
	
	trigger = {
		has_global_flag = new_world_discovered
		any_province = {
			area = cestirmark_area
			is_empty = yes
			
			#has_discovered = ROOT
			
			has_empty_adjacent_province = yes
		}
		
		current_age = age_of_reformation
	}
	
	mean_time_to_happen = {
		months = 600
		
		modifier = {
			factor = 0.5
			any_country = {
				capital_scope = { continent = europe }
				has_discovered = 1871
			}
		}
		
		modifier = {
			factor = 0.5
			is_year = 1530
		}
	}
	
	immediate = {
		hidden_effect = {
		random_province = {
			limit = {
				area = cestirmark_area
				is_empty = yes
				
				has_empty_adjacent_province = yes
				
			}
			
			save_event_target_as = spawn_province
		}
		
		random_province = {
			limit = {
				area = cestirmark_area
				is_empty = yes
				
				has_empty_adjacent_province = yes
				
				has_port = yes
			}
			
			save_event_target_as = spawn_province
		}		

		random_province = {
			limit = {
				area = cestirmark_area
				is_empty = yes
				
				has_empty_adjacent_province = yes
				
				province_id = 1871
			}
			
			save_event_target_as = spawn_province
		}
		}
	}
	
	option = {
		name = aelantirspawnables.1.a 
		
		event_target:spawn_province = {
			create_colony = 1000
		}
		
		event_target:spawn_province = {
			cede_province = H33
		}
		
		hidden_effect = {
			H33 = {
				country_event = { 
					id = anb_miscevents.7
					days = 30
				}
			}
		}
	}
	
	option = { # play as the pirates
		name = aelantirspawnables.1.b
		trigger = {
			ai = no
		}
		event_target:spawn_province = {
			create_colony = 1000
		}
		
		event_target:spawn_province = {
			cede_province = H33
		}

		switch_tag = H33
		
		hidden_effect = {
			H33 = {
				country_event = { 
					id = anb_miscevents.7
					days = 30
				}
			}
		}
	}
}

#Ebenmas
country_event = {
	id = aelantirspawnables.5
	title = aelantirspawnables.5.t
	desc = aelantirspawnables.5.d
	picture = CARIBBEAN_PIRATE_FORT_eventPicture
	
	fire_only_once = yes
	
	trigger = {
		has_global_flag = new_world_discovered
		any_province = {
			area = ebenmas_area
			is_empty = yes
			
			#has_discovered = ROOT
			
			has_empty_adjacent_province = yes
		}
		current_age = age_of_reformation
	}
	
	mean_time_to_happen = {
		months = 600
		
		modifier = {
			factor = 0.5
			any_country = {
				capital_scope = { continent = europe }
				has_discovered = 1823
			}
		}
		
		modifier = {
			factor = 0.5
			is_year = 1530
		}
	}
	
	immediate = {
		hidden_effect = {
		random_province = {
			limit = {
				area = ebenmas_area
				is_empty = yes
				
				has_empty_adjacent_province = yes
				
			}
			
			save_event_target_as = spawn_province
		}	

		random_province = {
			limit = {
				area = ebenmas_area
				is_empty = yes
				
				has_empty_adjacent_province = yes
				
				province_id = 1823
			}
			
			save_event_target_as = spawn_province
		}
		}
	}
	
	option = {
		name = aelantirspawnables.1.a 
		
		event_target:spawn_province = {
			create_colony = 1000
		}
		
		event_target:spawn_province = {
			cede_province = H34
		}
		
		hidden_effect = {
			H34 = {
				country_event = { 
					id = anb_miscevents.7
					days = 30
				}
			}
		}
	}
	
	option = { # play as the pirates
		name = aelantirspawnables.1.b
		trigger = {
			ai = no
		}
		event_target:spawn_province = {
			create_colony = 1000
		}
		
		event_target:spawn_province = {
			cede_province = H34
		}

		switch_tag = H34
		
		hidden_effect = {
			H34 = {
				country_event = { 
					id = anb_miscevents.7
					days = 30
				}
			}
		}
	}
}


#Corinsfield
country_event = {
	id = aelantirspawnables.6
	title = aelantirspawnables.6.t
	desc = aelantirspawnables.6.d
	picture = CARIBBEAN_PIRATE_FORT_eventPicture
	
	fire_only_once = yes
	
	trigger = {
		has_global_flag = new_world_discovered
		any_province = {
			area = corinsfield_area
			is_empty = yes
			
			#has_discovered = ROOT
			
			has_empty_adjacent_province = yes
		}
		is_religion_enabled = corinite
	}
	
	mean_time_to_happen = {
		months = 600
		
		modifier = {
			factor = 0.5
			is_year = 1580
		}
		modifier = {
			factor = 0.25
			hre_leagues_enabled = yes
		}
		modifier = {
			factor = 0.5
			any_country = {
				capital_scope = { continent = europe }
				has_discovered = 2807
			}
		}

	}
	
	immediate = {
		hidden_effect = {
		random_province = {
			limit = {
				area = corinsfield_area
				is_empty = yes
				
				has_empty_adjacent_province = yes
				
			}
			
			save_event_target_as = spawn_province
		}

		random_province = {
			limit = {
				area = corinsfield_area
				is_empty = yes
				
				has_empty_adjacent_province = yes
				
				province_id = 2807
			}
			
			save_event_target_as = spawn_province
		}
		}
	}
	
	option = {
		name = aelantirspawnables.1.a 
		
		event_target:spawn_province = {
			create_colony = 1000
		}
		
		event_target:spawn_province = {
			cede_province = H35
		}
		
		hidden_effect = {
			H35 = {
				country_event = { 
					id = anb_miscevents.7
					days = 30
				}
			}
		}
	}
	
	option = { # play as the pirates
		name = aelantirspawnables.1.b
		trigger = {
			ai = no
		}
		event_target:spawn_province = {
			create_colony = 1000
		}
		
		event_target:spawn_province = {
			cede_province = H35
		}

		switch_tag = H35
		
		hidden_effect = {
			H35 = {
				country_event = { 
					id = anb_miscevents.7
					days = 30
				}
			}
		}
	}
}


#Valorpoint
country_event = {
	id = aelantirspawnables.7
	title = aelantirspawnables.7.t
	desc = aelantirspawnables.7.d
	picture = CARIBBEAN_PIRATE_FORT_eventPicture
	
	fire_only_once = yes
	
	trigger = {
		has_global_flag = new_world_discovered
		any_province = {
			area = valorpoint_area
			is_empty = yes
			
			#has_discovered = ROOT
			
			has_empty_adjacent_province = yes
		}
		is_religion_enabled = corinite
	}
	
	mean_time_to_happen = {
		months = 600
		
		modifier = {
			factor = 0.5
			is_year = 1560
		}
		modifier = {
			factor = 0.25
			hre_leagues_enabled = yes
		}
		modifier = {
			factor = 0.5
			any_country = {
				capital_scope = { continent = europe }
				has_discovered = 1047
			}
		}
	}
	
	immediate = {
		hidden_effect = {
		random_province = {
			limit = {
				area = valorpoint_area
				is_empty = yes
				
				has_empty_adjacent_province = yes
				
			}
			
			save_event_target_as = spawn_province
		}
		
		random_province = {
			limit = {
				area = valorpoint_area
				is_empty = yes
				
				has_empty_adjacent_province = yes
				
				has_port = yes
			}
			
			save_event_target_as = spawn_province
		}		

		random_province = {
			limit = {
				area = valorpoint_area
				is_empty = yes
				
				has_empty_adjacent_province = yes
				
				province_id = 1047
			}
			
			save_event_target_as = spawn_province
		}
		}
	}
	
	option = {
		name = aelantirspawnables.1.a 
		
		event_target:spawn_province = {
			create_colony = 1000
		}
		
		event_target:spawn_province = {
			cede_province = H36
		}
		
		hidden_effect = {
			H36 = {
				country_event = { 
					id = anb_miscevents.7
					days = 30
				}
			}
		}
	}
	
	option = { # play as the pirates
		name = aelantirspawnables.1.b
		trigger = {
			ai = no
		}
		event_target:spawn_province = {
			create_colony = 1000
		}
		
		event_target:spawn_province = {
			cede_province = H36
		}

		switch_tag = H36
		
		hidden_effect = {
			H36 = {
				country_event = { 
					id = anb_miscevents.7
					days = 30
				}
			}
		}
	}
}

#Themaria
country_event = {
	id = aelantirspawnables.8
	title = aelantirspawnables.8.t
	desc = aelantirspawnables.8.d
	picture = CARIBBEAN_PIRATE_FORT_eventPicture
	
	fire_only_once = yes
	
	trigger = {
		has_global_flag = new_world_discovered
		any_province = {
			area = themaria_area
			is_empty = yes
			
			#has_discovered = ROOT
			
			has_empty_adjacent_province = yes
		}
		is_year = 1600
	}
	
	mean_time_to_happen = {
		months = 600
		
		modifier = {
			factor = 0.5
			is_year = 1650
		}
		modifier = {
			factor = 0.5
			any_country = {
				capital_scope = { continent = europe }
				has_discovered = 1273
			}
		}
	}
	
	immediate = {
		hidden_effect = {
		random_province = {
			limit = {
				area = themaria_area
				is_empty = yes
				
				has_empty_adjacent_province = yes
				
			}
			
			save_event_target_as = spawn_province
		}
		
		random_province = {
			limit = {
				area = themaria_area
				is_empty = yes
				
				has_empty_adjacent_province = yes
				
				has_port = yes
			}
			
			save_event_target_as = spawn_province
		}		

		random_province = {
			limit = {
				area = themaria_area
				is_empty = yes
				
				has_empty_adjacent_province = yes
				
				province_id = 1273
			}
			
			save_event_target_as = spawn_province
		}
		}
	}
	
	option = {
		name = aelantirspawnables.1.a 
		
		event_target:spawn_province = {
			create_colony = 1000
		}
		
		event_target:spawn_province = {
			cede_province = H37
		}
		
		hidden_effect = {
			H37 = {
				country_event = { 
					id = anb_miscevents.7
					days = 30
				}
			}
		}
	}
	
	option = { # play as the pirates
		name = aelantirspawnables.1.b
		trigger = {
			ai = no
		}
		event_target:spawn_province = {
			create_colony = 1000
		}
		
		event_target:spawn_province = {
			cede_province = H37
		}

		switch_tag = H37
		
		hidden_effect = {
			H37 = {
				country_event = { 
					id = anb_miscevents.7
					days = 30
				}
			}
		}
	}
}


#Zanlib
country_event = {
	id = aelantirspawnables.9
	title = aelantirspawnables.9.t
	desc = aelantirspawnables.9.d
	picture = CARIBBEAN_PIRATE_FORT_eventPicture
	
	fire_only_once = yes
	
	trigger = {
		has_global_flag = new_world_discovered
		any_province = {
			area = zanlib_area
			is_empty = yes
			
			#has_discovered = ROOT
			
			has_empty_adjacent_province = yes
		}
		current_age = age_of_reformation
	}
	
	mean_time_to_happen = {
		months = 600
		
		modifier = {
			factor = 0.5
			any_country = {
				capital_scope = { continent = europe }
				has_discovered = 1030
			}
		}
		modifier = {
			factor = 0.5
			is_year = 1530
		}
	}
	
	immediate = {
		hidden_effect = {
		random_province = {
			limit = {
				area = zanlib_area
				is_empty = yes
				
				has_empty_adjacent_province = yes
				
			}
			
			save_event_target_as = spawn_province
		}
		
		random_province = {
			limit = {
				area = zanlib_area
				is_empty = yes
				
				has_empty_adjacent_province = yes
				
				has_port = yes
			}
			
			save_event_target_as = spawn_province
		}		

		random_province = {
			limit = {
				area = zanlib_area
				is_empty = yes
				
				has_empty_adjacent_province = yes
				
				province_id = 1030
			}
			
			save_event_target_as = spawn_province
		}
		}
	}
	
	option = {
		name = aelantirspawnables.1.a 
		
		event_target:spawn_province = {
			create_colony = 1000
		}
		
		event_target:spawn_province = {
			cede_province = H38
		}
		
		hidden_effect = {
			H38 = {
				country_event = { 
					id = anb_miscevents.7
					days = 30
				}
			}
		}
	}
	
	option = { # play as the pirates
		name = aelantirspawnables.1.b
		trigger = {
			ai = no
		}
		event_target:spawn_province = {
			create_colony = 1000
		}
		
		event_target:spawn_province = {
			cede_province = H38
		}

		switch_tag = H38
		
		hidden_effect = {
			H38 = {
				country_event = { 
					id = anb_miscevents.7
					days = 30
				}
			}
		}
	}
}


#Greenfort
country_event = {
	id = aelantirspawnables.10
	title = aelantirspawnables.10.t
	desc = aelantirspawnables.10.d
	picture = CARIBBEAN_PIRATE_FORT_eventPicture
	
	fire_only_once = yes
	
	trigger = {
		has_global_flag = new_world_discovered
		any_province = {
			area = greenfort_area
			is_empty = yes
			
			#has_discovered = ROOT
			
			has_empty_adjacent_province = yes
		}
		any_province = {
			OR = {
				continent = north_america
				continent = south_america
			}
			trade_goods = slaves
		}
		is_year = 1650
	}
	
	mean_time_to_happen = {
		months = 600
		
		
		modifier = {
			factor = 0.5
			any_country = {
				capital_scope = { continent = europe }
				has_discovered = 2197
			}
		}
	}
	
	immediate = {
		hidden_effect = {
		random_province = {
			limit = {
				area = greenfort_area
				is_empty = yes
				
				has_empty_adjacent_province = yes
				
			}
			
			save_event_target_as = spawn_province
		}
		
		random_province = {
			limit = {
				area = greenfort_area
				is_empty = yes
				
				has_empty_adjacent_province = yes
				
				has_port = yes
			}
			
			save_event_target_as = spawn_province
		}		

		random_province = {
			limit = {
				area = greenfort_area
				is_empty = yes
				
				has_empty_adjacent_province = yes
				
				province_id = 2197
			}
			
			save_event_target_as = spawn_province
		}
		}
	}
	
	option = {
		name = aelantirspawnables.1.a 
		
		event_target:spawn_province = {
			create_colony = 1000
		}
		
		event_target:spawn_province = {
			cede_province = H39
		}
		
		hidden_effect = {
			H39 = {
				country_event = { 
					id = anb_miscevents.7
					days = 30
				}
			}
		}
	}
	
	option = { # play as the pirates
		name = aelantirspawnables.1.b
		trigger = {
			ai = no
		}
		event_target:spawn_province = {
			create_colony = 1000
		}
		
		event_target:spawn_province = {
			cede_province = H39
		}

		switch_tag = H39
		
		hidden_effect = {
			H39 = {
				country_event = { 
					id = anb_miscevents.7
					days = 30
				}
			}
		}
	}
}

#Asraport
country_event = {
	id = aelantirspawnables.11
	title = aelantirspawnables.11.t
	desc = aelantirspawnables.11.d
	picture = CARIBBEAN_PIRATE_FORT_eventPicture
	
	fire_only_once = yes
	
	trigger = {
		has_global_flag = new_world_discovered
		any_province = {
			area = wanderers_gate_area
			is_empty = yes
			
			#has_discovered = ROOT
			
			has_empty_adjacent_province = yes
		}
		is_year = 1500
	}
	
	mean_time_to_happen = {
		months = 600
			
		modifier = {
			factor = 0.5
			any_country = {
				capital_scope = { continent = europe }
				has_discovered = 1058
			}
		}
		modifier = {
			factor = 0.5
			is_year = 1530
		}
	}
	
	immediate = {
		hidden_effect = {
		random_province = {
			limit = {
				area = wanderers_gate_area
				is_empty = yes
				
				has_empty_adjacent_province = yes
				
			}
			
			save_event_target_as = spawn_province
		}
		
		random_province = {
			limit = {
				area = wanderers_gate_area
				is_empty = yes
				
				has_empty_adjacent_province = yes
				
				has_port = yes
			}
			
			save_event_target_as = spawn_province
		}		

		random_province = {
			limit = {
				area = wanderers_gate_area
				is_empty = yes
				
				has_empty_adjacent_province = yes
				
				province_id = 1058
			}
			
			save_event_target_as = spawn_province
		}
		}
	}
	
	option = {
		name = aelantirspawnables.1.a 
		
		event_target:spawn_province = {
			create_colony = 1000
		}
		
		event_target:spawn_province = {
			cede_province = G90
		}
		
		hidden_effect = {
			G90 = {
				country_event = { 
					id = anb_miscevents.7
					days = 30
				}
			}
		}
	}
	
	option = { # play as the pirates
		name = aelantirspawnables.1.b
		trigger = {
			ai = no
		}
		event_target:spawn_province = {
			create_colony = 1000
		}
		
		event_target:spawn_province = {
			cede_province = G90
		}

		switch_tag = G90
		
		hidden_effect = {
			G90 = {
				country_event = { 
					id = anb_miscevents.7
					days = 30
				}
			}
		}
	}
}

#Isobelin
country_event = {
	id = aelantirspawnables.12
	title = aelantirspawnables.12.t
	desc = aelantirspawnables.12.d
	picture = CARIBBEAN_PIRATE_FORT_eventPicture
	
	fire_only_once = yes
	
	trigger = {
		has_global_flag = new_world_discovered
		any_province = {
			area = coast_of_isobel_area
			is_empty = yes
			
			#has_discovered = ROOT
			
			has_empty_adjacent_province = yes
		}
		is_year = 1500
	}
	
	mean_time_to_happen = {
		months = 600
			
		modifier = {
			factor = 0.5
			any_country = {
				capital_scope = { continent = europe }
				has_discovered = 2197
			}
		}
		modifier = {
			factor = 0.5
			is_year = 1550
		}
	}
	
	immediate = {
		hidden_effect = {
		random_province = {
			limit = {
				area = coast_of_isobel_area
				is_empty = yes
				
				has_empty_adjacent_province = yes
				
			}
			
			save_event_target_as = spawn_province
		}
		
		random_province = {
			limit = {
				area = coast_of_isobel_area
				is_empty = yes
				
				has_empty_adjacent_province = yes
				
				has_port = yes
			}
			
			save_event_target_as = spawn_province
		}		

		random_province = {
			limit = {
				area = coast_of_isobel_area
				is_empty = yes
				
				has_empty_adjacent_province = yes
				
				province_id = 2197
			}
			
			save_event_target_as = spawn_province
		}
		}
	}
	
	option = {
		name = aelantirspawnables.1.a 
		
		event_target:spawn_province = {
			create_colony = 1000
		}
		
		event_target:spawn_province = {
			cede_province = G91
		}
		
		hidden_effect = {
			G91 = {
				country_event = { 
					id = anb_miscevents.7
					days = 30
				}
				define_ruler = {
					name = "Isobel"
					dynasty = "síl Isobelin"
					adm = 5
					dip = 6
					mil = 2
					age = 48
					claim = 95
					female = yes
				}
			}
		}
	}
	
	option = { # play as the pirates
		name = aelantirspawnables.1.b
		trigger = {
			ai = no
		}
		event_target:spawn_province = {
			create_colony = 1000
		}
		
		event_target:spawn_province = {
			cede_province = G91
		}

		switch_tag = G91
		
		hidden_effect = {
			G91 = {
				country_event = { 
					id = anb_miscevents.7
					days = 30
				}
				define_ruler = {
					name = "Isobel"
					dynasty = "síl Isobelin"
					adm = 5
					dip = 6
					mil = 2
					age = 48
					claim = 95
				}
			}
		}
	}
}

#Saamirses
country_event = {
	id = aelantirspawnables.13
	title = aelantirspawnables.13.t
	desc = aelantirspawnables.13.d
	picture = CARIBBEAN_PIRATE_FORT_eventPicture
	
	fire_only_once = yes
	
	trigger = {
		has_global_flag = new_world_discovered
		any_province = {
			area = arears9_area
			is_empty = yes
			
			#has_discovered = ROOT
			
			has_empty_adjacent_province = yes
		}
		is_year = 1500
	}
	
	mean_time_to_happen = {
		months = 600
		
		modifier = {
			factor = 0.5
			any_country = {
				capital_scope = { continent = europe }
				has_discovered = 1099
			}
		}
		modifier = {
			factor = 0.5
			is_year = 1530
		}
	}
	
	immediate = {
		hidden_effect = {
		random_province = {
			limit = {
				area = arears9_area
				is_empty = yes
				
				has_empty_adjacent_province = yes
				
			}
			
			save_event_target_as = spawn_province
		}
		
		random_province = {
			limit = {
				area = arears9_area
				is_empty = yes
				
				has_empty_adjacent_province = yes
				
				has_port = yes
			}
			
			save_event_target_as = spawn_province
		}		

		random_province = {
			limit = {
				area = arears9_area
				is_empty = yes
				
				has_empty_adjacent_province = yes
				
				province_id = 1099
			}
			
			save_event_target_as = spawn_province
		}
		}
	}
	
	option = {
		name = aelantirspawnables.1.a 
		
		event_target:spawn_province = {
			create_colony = 1000
		}
		
		event_target:spawn_province = {
			cede_province = G92
		}
		
		hidden_effect = {
			G92 = {
				country_event = { 
					id = anb_miscevents.7
					days = 30
				}
			}
		}
	}
	
	option = { # play as the pirates
		name = aelantirspawnables.1.b
		trigger = {
			ai = no
		}
		event_target:spawn_province = {
			create_colony = 1000
		}
		
		event_target:spawn_province = {
			cede_province = G92
		}

		switch_tag = G92
		
		hidden_effect = {
			G92 = {
				country_event = { 
					id = anb_miscevents.7
					days = 30
				}
			}
		}
	}
}

#Mykx
country_event = {
	id = aelantirspawnables.14
	title = aelantirspawnables.14.t
	desc = aelantirspawnables.14.d
	picture = CARIBBEAN_PIRATE_FORT_eventPicture
	
	fire_only_once = yes
	
	trigger = {
		has_global_flag = new_world_discovered
		any_province = {
			area = arears1_area
			is_empty = yes
			
			#has_discovered = ROOT
			
			has_empty_adjacent_province = yes
		}
		is_year = 1500
	}
	
	mean_time_to_happen = {
		months = 600
		
		modifier = {
			factor = 0.5
			any_country = {
				capital_scope = { continent = europe }
				has_discovered = 1075
			}
		}
		modifier = {
			factor = 0.5
			is_year = 1530
		}
	}
	
	immediate = {
		hidden_effect = {
		random_province = {
			limit = {
				area = arears1_area
				is_empty = yes
				
				has_empty_adjacent_province = yes
				
			}
			
			save_event_target_as = spawn_province
		}
		
		random_province = {
			limit = {
				area = arears1_area
				is_empty = yes
				
				has_empty_adjacent_province = yes
				
				has_port = yes
			}
			
			save_event_target_as = spawn_province
		}		

		random_province = {
			limit = {
				area = arears1_area
				is_empty = yes
				
				has_empty_adjacent_province = yes
				
				province_id = 1075
			}
			
			save_event_target_as = spawn_province
		}
		}
	}
	
	option = {
		name = aelantirspawnables.1.a 
		
		event_target:spawn_province = {
			create_colony = 1000
		}
		
		event_target:spawn_province = {
			cede_province = G93
		}
		
		hidden_effect = {
			G93 = {
				country_event = { 
					id = anb_miscevents.7
					days = 30
				}
				define_ruler = {
					name = "Mykx"
					dynasty = "of Mykx"
					adm = 4
					dip = 1
					mil = 5
					age = 37
					claim = 95
					female = yes
				}
			}
		}
	}
	
	option = { # play as the pirates
		name = aelantirspawnables.1.b
		trigger = {
			ai = no
		}
		event_target:spawn_province = {
			create_colony = 1000
		}
		
		event_target:spawn_province = {
			cede_province = G93
		}

		switch_tag = G93
		
		hidden_effect = {
			G93 = {
				country_event = { 
					id = anb_miscevents.7
					days = 30
				}
			}
		}
	}
}

#Balgabar
country_event = {
	id = aelantirspawnables.15
	title = aelantirspawnables.15.t
	desc = aelantirspawnables.15.d
	picture = CARIBBEAN_PIRATE_FORT_eventPicture
	
	fire_only_once = yes
	
	trigger = {
		has_global_flag = new_world_discovered
		any_province = {
			area = balgabar_area
			is_empty = yes
			
			#has_discovered = ROOT
			
			has_empty_adjacent_province = yes
		}
		current_age = age_of_reformation
	}
	
	mean_time_to_happen = {
		months = 600
		
		modifier = {
			factor = 0.5
			any_country = {
				capital_scope = { continent = europe }
				has_discovered = 1159
			}
		}
		modifier = {
			factor = 0.5
			is_year = 1560
		}
	}
	
	immediate = {
		hidden_effect = {
		random_province = {
			limit = {
				area = balgabar_area
				is_empty = yes
				
				has_empty_adjacent_province = yes
				
			}
			
			save_event_target_as = spawn_province
		}
		

		random_province = {
			limit = {
				area = balgabar_area
				is_empty = yes
				
				has_empty_adjacent_province = yes
				
				province_id = 1159
			}
			
			save_event_target_as = spawn_province
		}
		}
	}
	
	option = {
		name = aelantirspawnables.1.a 
		
		event_target:spawn_province = {
			create_colony = 1000
		}
		
		event_target:spawn_province = {
			cede_province = G94
		}
		
		hidden_effect = {
			G94 = {
				country_event = { 
					id = anb_miscevents.7
					days = 30
				}
			}
		}
	}
	
	option = { # play as the pirates
		name = aelantirspawnables.1.b
		trigger = {
			ai = no
		}
		event_target:spawn_province = {
			create_colony = 1000
		}
		
		event_target:spawn_province = {
			cede_province = G94
		}

		switch_tag = G94
		
		hidden_effect = {
			G94 = {
				country_event = { 
					id = anb_miscevents.7
					days = 30
				}
			}
		}
	}
}

#Marlliande
country_event = {
	id = aelantirspawnables.16
	title = aelantirspawnables.16.t
	desc = aelantirspawnables.16.d
	picture = CARIBBEAN_PIRATE_FORT_eventPicture
	
	fire_only_once = yes
	
	trigger = {
		has_global_flag = new_world_discovered
		any_province = {
			area = marlliande_area
			is_empty = yes
			
			#has_discovered = ROOT
			
			has_empty_adjacent_province = yes
		}
		is_year = 1500
	}
	
	mean_time_to_happen = {
		months = 600
		
		modifier = {
			factor = 0.5
			any_country = {
				capital_scope = { continent = europe }
				has_discovered = 1024
			}
		}
		modifier = {
			factor = 0.5
			is_year = 1530
		}
	}
	
	immediate = {
		hidden_effect = {
		random_province = {
			limit = {
				area = marlliande_area
				is_empty = yes
				
				has_empty_adjacent_province = yes
				
			}
			
			save_event_target_as = spawn_province
		}
		
		random_province = {
			limit = {
				area = marlliande_area
				is_empty = yes
				
				has_empty_adjacent_province = yes
				
				has_port = yes
			}
			
			save_event_target_as = spawn_province
		}		

		random_province = {
			limit = {
				area = marlliande_area
				is_empty = yes
				
				has_empty_adjacent_province = yes
				
				province_id = 1024
			}
			
			save_event_target_as = spawn_province
		}
		}
	}
	
	option = {
		name = aelantirspawnables.1.a 
		
		event_target:spawn_province = {
			create_colony = 1000
		}
		
		event_target:spawn_province = {
			cede_province = G95
		}
		
		hidden_effect = {
			G95 = {
				country_event = { 
					id = anb_miscevents.7
					days = 30
				}
			}
		}
	}
	
	option = { # play as the pirates
		name = aelantirspawnables.1.b
		trigger = {
			ai = no
		}
		event_target:spawn_province = {
			create_colony = 1000
		}
		
		event_target:spawn_province = {
			cede_province = G95
		}

		switch_tag = G95
		
		hidden_effect = {
			G95 = {
				country_event = { 
					id = anb_miscevents.7
					days = 30
				}
			}
		}
	}
}

#Thilvis
country_event = {
	id = aelantirspawnables.17
	title = aelantirspawnables.17.t
	desc = aelantirspawnables.17.d
	picture = CARIBBEAN_PIRATE_FORT_eventPicture
	
	fire_only_once = yes
	
	trigger = {
		has_global_flag = new_world_discovered
		any_province = {
			area = thilsvis_area
			is_empty = yes
			
			#has_discovered = ROOT
			
			has_empty_adjacent_province = yes
		}
		is_year = 1500
	}
	
	mean_time_to_happen = {
		months = 600
		
		modifier = {
			factor = 0.5
			any_country = {
				capital_scope = { continent = europe }
				has_discovered = 1037
			}
		}
		modifier = {
			factor = 0.5
			is_year = 1530
		}
	}
	
	immediate = {
		hidden_effect = {
		random_province = {
			limit = {
				area = thilsvis_area
				is_empty = yes
				
				has_empty_adjacent_province = yes
				
			}
			
			save_event_target_as = spawn_province
		}
		
		random_province = {
			limit = {
				area = thilsvis_area
				is_empty = yes
				
				has_empty_adjacent_province = yes
				
				has_port = yes
			}
			
			save_event_target_as = spawn_province
		}		

		random_province = {
			limit = {
				area = thilsvis_area
				is_empty = yes
				
				has_empty_adjacent_province = yes
				
				province_id = 1037
			}
			
			save_event_target_as = spawn_province
		}
		}
	}
	
	option = {
		name = aelantirspawnables.1.a 
		
		event_target:spawn_province = {
			create_colony = 1000
		}
		
		event_target:spawn_province = {
			cede_province = G96
		}
		
		hidden_effect = {
			G96 = {
				country_event = { 
					id = anb_miscevents.7
					days = 30
				}
			}
		}
	}
	
	option = { # play as the pirates
		name = aelantirspawnables.1.b
		trigger = {
			ai = no
		}
		event_target:spawn_province = {
			create_colony = 1000
		}
		
		event_target:spawn_province = {
			cede_province = G96
		}

		switch_tag = G96
		
		hidden_effect = {
			G96 = {
				country_event = { 
					id = anb_miscevents.7
					days = 30
				}
			}
		}
	}
}

#Vanbury Guild
country_event = {
	id = aelantirspawnables.18
	title = aelantirspawnables.18.t
	desc = aelantirspawnables.18.d
	picture = CARIBBEAN_PIRATE_FORT_eventPicture
	
	fire_only_once = yes
	
	trigger = {
		has_global_flag = new_world_discovered
		any_province = {
			area = areatd19_area
			is_empty = yes
			
			#has_discovered = ROOT
			
			has_empty_adjacent_province = yes
		}
		is_year = 1500
	}
	
	mean_time_to_happen = {
		months = 200
		
		modifier = {
			factor = 0.5
			any_country = {
				capital_scope = { continent = europe }
				has_discovered = 2164
			}
		}
		modifier = {
			factor = 0.5
			is_year = 1550
		}
	}
	
	immediate = {
		hidden_effect = {
		random_province = {
			limit = {
				area = areatd19_area
				is_empty = yes
				
				has_empty_adjacent_province = yes
				
			}
			
			save_event_target_as = spawn_province
		}
		
		random_province = {
			limit = {
				area = areatd19_area
				is_empty = yes
				
				has_empty_adjacent_province = yes
				
				has_port = yes
			}
			
			save_event_target_as = spawn_province
		}		

		random_province = {
			limit = {
				area = areatd19_area
				is_empty = yes
				
				has_empty_adjacent_province = yes
				
				province_id = 2164
			}
			
			save_event_target_as = spawn_province
		}
		}
	}
	
	option = {
		name = aelantirspawnables.1.a 
		
		event_target:spawn_province = {
			create_colony = 1000
		}
		
		event_target:spawn_province = {
			cede_province = G97
		}
		
		hidden_effect = {
			G97 = {
				country_event = { 
					id = anb_miscevents.7
					days = 30
				}
			}
		}
	}
	
	option = { # play as the pirates
		name = aelantirspawnables.1.b
		trigger = {
			ai = no
		}
		event_target:spawn_province = {
			create_colony = 1000
		}
		
		event_target:spawn_province = {
			cede_province = G97
		}

		switch_tag = G97
		
		hidden_effect = {
			G97 = {
				country_event = { 
					id = anb_miscevents.7
					days = 30
				}
			}
		}
	}
}

#Calasanni Trading Company
country_event = {
	id = aelantirspawnables.19
	title = aelantirspawnables.19.t
	desc = aelantirspawnables.19.d
	picture = CARIBBEAN_PIRATE_FORT_eventPicture
	
	fire_only_once = yes
	
	trigger = {
		has_global_flag = new_world_discovered
		any_province = {
			area = arears4_area
			is_empty = yes
			
			#has_discovered = ROOT
			
			has_empty_adjacent_province = yes
		}
		is_year = 1500
	}
	
	mean_time_to_happen = {
		months = 200
		
		modifier = {
			factor = 0.5
			any_country = {
				capital_scope = { continent = europe }
				has_discovered = 1086
			}
		}
		modifier = {
			factor = 0.5
			is_year = 1550
		}
	}
	
	immediate = {
		hidden_effect = {
		random_province = {
			limit = {
				area = arears4_area
				is_empty = yes
				
				has_empty_adjacent_province = yes
				
			}
			
			save_event_target_as = spawn_province
		}
		
		random_province = {
			limit = {
				area = arears4_area
				is_empty = yes
				
				has_empty_adjacent_province = yes
				
				has_port = yes
			}
			
			save_event_target_as = spawn_province
		}		

		random_province = {
			limit = {
				area = arears4_area
				is_empty = yes
				
				has_empty_adjacent_province = yes
				
				province_id = 1086
			}
			
			save_event_target_as = spawn_province
		}
		}
	}
	
	option = {
		name = aelantirspawnables.1.a 
		
		event_target:spawn_province = {
			create_colony = 1000
		}
		
		event_target:spawn_province = {
			cede_province = G98
		}
		
		hidden_effect = {
			G98 = {
				country_event = { 
					id = anb_miscevents.7
					days = 30
				}
			}
		}
	}
	
	option = { # play as the pirates
		name = aelantirspawnables.1.b
		trigger = {
			ai = no
		}
		event_target:spawn_province = {
			create_colony = 1000
		}
		
		event_target:spawn_province = {
			cede_province = G98
		}

		switch_tag = G98
		
		hidden_effect = {
			G98 = {
				country_event = { 
					id = anb_miscevents.7
					days = 30
				}
			}
		}
	}
}

#Deranne Trade Company
country_event = {
	id = aelantirspawnables.20
	title = aelantirspawnables.20.t
	desc = aelantirspawnables.20.d
	picture = CARIBBEAN_PIRATE_FORT_eventPicture
	
	fire_only_once = yes
	
	trigger = {
		has_global_flag = new_world_discovered
		any_province = {
			area = areaae1_area
			is_empty = yes
			
			#has_discovered = ROOT
			
			has_empty_adjacent_province = yes
		}
		is_year = 1500
	}
	
	mean_time_to_happen = {
		months = 200
		
		modifier = {
			factor = 0.5
			any_country = {
				capital_scope = { continent = europe }
				has_discovered = 927
			}
		}
		modifier = {
			factor = 0.5
			is_year = 1550
		}
	}
	
	immediate = {
		hidden_effect = {
		random_province = {
			limit = {
				area = areaae1_area
				is_empty = yes
				
				has_empty_adjacent_province = yes
				
			}
			
			save_event_target_as = spawn_province
		}
		
		random_province = {
			limit = {
				area = areaae1_area
				is_empty = yes
				
				has_empty_adjacent_province = yes
				
				has_port = yes
			}
			
			save_event_target_as = spawn_province
		}		

		random_province = {
			limit = {
				area = areaae1_area
				is_empty = yes
				
				has_empty_adjacent_province = yes
				
				province_id = 927
			}
			
			save_event_target_as = spawn_province
		}
		}
	}
	
	option = {
		name = aelantirspawnables.1.a 
		
		event_target:spawn_province = {
			create_colony = 1000
		}
		
		event_target:spawn_province = {
			cede_province = G99
		}
		
		hidden_effect = {
			G99 = {
				country_event = { 
					id = anb_miscevents.7
					days = 30
				}
			}
		}
	}
	
	option = { # play as the pirates
		name = aelantirspawnables.1.b
		trigger = {
			ai = no
		}
		event_target:spawn_province = {
			create_colony = 1000
		}
		
		event_target:spawn_province = {
			cede_province = G99
		}

		switch_tag = G99
		
		hidden_effect = {
			G99 = {
				country_event = { 
					id = anb_miscevents.7
					days = 30
				}
			}
		}
	}
}