########################################
# Raj Events                         #
########################################

namespace = rahenraj

country_event = {
	id = rahenraj.0
	title = rahenraj.0.t
	desc = rahenraj.0.d
	picture = COURT_eventPicture

	is_triggered_only = yes
	fire_only_once = yes
	
	trigger = { tag = R51 }
	
	option = {
		name = rahenraj.0.a
		
		add_corruption = 10
	}
}

# The DYNASTYNAME raja_reform has fallen!
province_event = {
	id = rahenraj.1
	title = rahenraj.1.t
	picture = COURT_eventPicture
	
	major = yes
	is_triggered_only = yes
	
	desc = {
		trigger = {
			owner = { has_reform = raja_reform }
			FROM = {
				has_reform = raja_reform
			}
		}
		desc = rahenraj.1.da
	}
	
	desc = {
		trigger = {
			owner = { has_reform = raja_reform }
			FROM = {
				NOT = { has_reform = raja_reform }
			}
		}
		desc = rahenraj.1.db
	}
	
	desc = {
		trigger = {
			owner = {
				NOT = { has_reform = raja_reform }
			}
		}
		desc = rahenraj.1.db
	}
	
	trigger = {
		province_id = 4411
	}
	

	immediate = {
		hidden_effect = {
			owner = {
				if = {
					limit = {
						OR = {
							has_reform = jamindar_reform
							has_reform = great_jamindar_reform
							has_reform = indep_jamindar_reform
						}
					}
					add_core = 4411
					set_capital = 4411
					add_government_reform = raja_reform
					save_event_target_as = new_shogunate
				}
			}
		}
	}
	
	option = {
		name = rahenraj.1.aa
		if = {
			limit = {
				owner = { has_reform = raja_reform }
			}
			custom_tooltip = claiming_the_shogunate_tooltip
		}
		hidden_effect = {
			if = {
				limit = {
					exists = FROM
					owner = { has_reform = raja_reform }
					FROM = { has_reform = raja_reform }
				}
				FROM = {
					free_vassal = PREV
				}
				FROM = {
					every_subject_country = {
						limit = {
							OR = {
								has_reform = jamindar_reform
								has_reform = great_jamindar_reform
								has_reform = indep_jamindar_reform
							}
							NOT = { war_with = event_target:new_shogunate }
						}
						event_target:new_shogunate = {
							vassalize = PREV
						}
					}
					every_subject_country = {
						limit = {
							OR = {
								has_reform = jamindar_reform
								has_reform = great_jamindar_reform
								has_reform = indep_jamindar_reform
							}
							war_with = event_target:new_shogunate
						}
						from = {
							free_vassal = prev
						}
						if = {
							limit = {
								NOT = { has_reform = indep_jamindar_reform }
							}
							add_government_reform = indep_jamindar_reform
						}
					}
					if = {
						limit = {
							has_dlc = "Dharma"
						}
						add_government_reform = indep_jamindar_reform
					}
					else = {
						set_legacy_government = indep_daimyo_legacy
					}
				}
			}
			if = {
				limit = {
					exists = FROM
					NOT = { owner = { has_reform = raja_reform } }
					FROM = { has_reform = raja_reform }
				}
				FROM = {
					every_subject_country = {
						limit = {
							OR = {
								has_reform = jamindar_reform
								has_reform = great_jamindar_reform
								has_reform = indep_jamindar_reform
							}
						}
						FROM = {
							free_vassal = PREV
						}
					}
					add_government_reform = indep_jamindar_reform
				}
			}
			if = {
				limit = {
					NOT = { exists = FROM }
					owner = { has_reform = raja_reform }
				}
				every_country = {
					limit = {
						OR = {
							has_reform = jamindar_reform
							has_reform = great_jamindar_reform
						}
						NOT = { war_with = event_target:new_shogunate }
					}
					event_target:new_shogunate = {
						vassalize = PREV
					}
				}
				every_country = {
					limit = {
						OR = {
							has_reform = jamindar_reform
							has_reform = great_jamindar_reform
						}
						war_with = event_target:new_shogunate
					}
					add_government_reform = indep_jamindar_reform
				}
			}
			if = {
				limit = {
					NOT = { exists = FROM }
					NOT = {
						owner = { has_reform = raja_reform }
					}
				}
				every_country = {
					limit = { 
						OR = {
							has_reform = jamindar_reform
							has_reform = great_jamindar_reform
						}
					}
					overlord = {
						free_vassal = PREV
					}
				}
			}
		}
		if = {
			limit = {
				NOT = {
					owner = { has_reform = raja_reform }
				}
			}
			owner = {
				if = {
					limit = { NOT = { has_country_flag = destroyed_shogunate } }
					add_prestige = 20
					add_adm_power = 50
					add_dip_power = 50
					add_mil_power = 50
					set_country_flag = destroyed_shogunate
				}
			}
		}
		hidden_effect = {
			if = {
				limit = {
					any_country = {
						is_subject_of_type = daimyo_vassal
						NOT = { overlord = { has_reform = raja_reform } }
					}
				}
				every_country = {
					limit = {
						is_subject_of_type = daimyo_vassal
						NOT = { overlord = { has_reform = raja_reform } }
					}
					overlord = {
						free_vassal = PREV
					}
				}
			}
		}
		hidden_effect = { #stip all reformation modifiers from the former Raja
			FROM = {
				remove_country_modifier = rahen_board_of_inquiry
				remove_country_modifier = rahen_restoring_ministry_1
				remove_country_modifier = rahen_restoring_ministry_2
				remove_country_modifier = rahen_restoring_ministry_3
				remove_country_modifier = rahen_restoring_ministry_4
			}
		}
	}
}

#A Senapti Falls
country_event = { #This event lowers a Senapti to Prabhi rank
	id = rahenraj.2
	title = rahenraj.2.t
	desc = rahenraj.2.d
	picture = FORT_eventPicture
	
	trigger = {
		OR = {
			AND = {
				is_subject_of_type = great_daimyo_vassal
				OR = {
					NOT = { num_of_cities = 2 }
					NOT = { ruler_culture = west_harimari ruler_culture = east_harimari}
				}
			}
			AND = {
				is_subject_of_type = great_daimyo_vassal
				OR = {
					overlord = {
						NOT = { num_of_subjects = 70 }
						great_daimyo_vassal = 13
					}
					overlord = {
						NOT = { num_of_subjects = 50 }
						great_daimyo_vassal = 11
					}
					overlord = {
						NOT = { num_of_subjects = 35 }
						great_daimyo_vassal = 7
					}
					overlord = {
						NOT = { num_of_subjects = 25 }
						great_daimyo_vassal = 5
					}
					overlord = {
						NOT = { num_of_subjects = 15 }
						great_daimyo_vassal = 3
					}
				}
				NOT = {
					overlord = {
						any_subject_country = {
							is_subject_of_type = great_daimyo_vassal
							NOT = { tag = ROOT }
							variable_arithmetic_trigger = {
								export_to_variable = {
									which = our_total_development
									value = trigger_value:total_development
								}
								export_to_variable = {
									which = root_total_development
									value = trigger_value:total_development
									who = ROOT
								}
								
								check_variable = { #Check if A >= B
									which = root_total_development #A
									which = our_total_development #B
								}
							}
						}
					}
				}
			}
		}
	}
	
	mean_time_to_happen = {
		months = 1
	}
	
	option = { #Oh no, we've fallen from grace!!!
		name = rahenraj.2.a
		ai_chance = { factor = 1 }
		
		overlord = {
			create_subject = {
				subject_type = daimyo_vassal
				subject = ROOT
			}
		}
		if = {
			limit = {
				has_reform = great_jamindar_reform
			}
			add_government_reform = jamindar_reform
		}
	}
}

#A Prabhi Rises
country_event = { #This is a hidden event that just does the original effect
	id = rahenraj.3
	title = rahenraj.3.t
	desc = rahenraj.3.d
	picture = FORT_eventPicture
	hidden = yes
	
	trigger = {
		is_subject_of_type = daimyo_vassal
		OR = { ruler_culture = west_harimari ruler_culture = east_harimari}
		NOT = { has_country_modifier = jamindar_promotion_rejected }
		NOT = { has_country_flag = potential_great_jamindar }
		NOT = {
			overlord = {
				NOT = { num_of_subjects = 100 }
				great_daimyo_vassal = 12
			}
			overlord = {
				NOT = { num_of_subjects = 70 }
				great_daimyo_vassal = 10
			}
			overlord = {
				NOT = { num_of_subjects = 50 }
				great_daimyo_vassal = 8
			}
			overlord = {
				NOT = { num_of_subjects = 35 }
				great_daimyo_vassal = 6
			}
			overlord = {
				NOT = { num_of_subjects = 25 }
				great_daimyo_vassal = 4
			}
			overlord = {
				NOT = { num_of_subjects = 15 }
				great_daimyo_vassal = 2
			}
		}
		NOT = {
			overlord = {
				any_subject_country = {
					is_subject_of_type = daimyo_vassal
					NOT = { has_country_modifier = jamindar_promotion_rejected }
					NOT = { tag = ROOT }
					variable_arithmetic_trigger = {
						export_to_variable = {
							which = our_total_development
							value = trigger_value:total_development
						}
						export_to_variable = {
							which = root_total_development
							value = trigger_value:total_development
							who = ROOT
						}
						
						check_variable = { #Check if A >= B
							which = our_total_development #A
							which = root_total_development #B
						}
					}
				}
			}
		}
	}
	
	mean_time_to_happen = {
		months = 1
	}
	
	option = { #Send event to Raj
		ai_chance = { factor = 1 }
		save_global_event_target_as = potential_great_jamindar_target
		overlord = {
			country_event = {
				id = rahenraj.4
			}
		}
	}
}
country_event = { #Tell the Raj that there is a new potential Senpati
	id = rahenraj.4
	title = rahenraj.4.t
	desc = rahenraj.4.d
	picture = FORT_eventPicture
	
	major = yes
	is_triggered_only = yes
	
	option = { #Raise Prabhi to Senapti
		name = rahenraj.4.a
		ai_chance = { factor = 1 } #! Balance AI chance
		
		event_target:potential_great_jamindar_target = {
			overlord = {
				create_subject = {
					subject_type = great_daimyo_vassal
					subject = event_target:potential_great_jamindar_target
				}
			}
			add_government_reform = great_jamindar_reform
		}
	}
	
	option = { #We don't need any more Senapti
		name = rahenraj.4.b
		ai_chance = { factor = 1 } #! Balance AI chance
		
		event_target:potential_great_jamindar_target = {
			add_country_modifier = {
				name = jamindar_promotion_rejected
				duration = 3650 #10 years
			}
		}
	}
}

#Event to ensure that Senapti and Prabhi keep Harimari rulers
country_event = { #If a Senapti ruler isn't a harimari
	id = rahenraj.5
	title = rahenraj.5.t
	desc = rahenraj.5.d
	picture = FORT_eventPicture
	
	trigger = {
		has_reform = great_jamindar_reform
		NOT = {
			ruler_culture = west_harimari
			ruler_culture = east_harimari
		}
	}
	is_triggered_only = yes
	
	option = { #Keep Current Ruler
		ai_chance = { factor = 0 }
		name = rahenraj.5.a
		
		add_prestige = 10
		add_legitimacy = 10
	}
	option = { #Change Ruler
		ai_chance = { factor = 5 }
		name = rahenraj.5.b
		
		if = {
			limit = { overlord = { primary_culture = west_harimari } }
			define_ruler = {
				culture = west_harimari
				claim = 50
				male = yes
			}
		}
		else_if = {
			limit = { overlord = { primary_culture = east_harimari } }
			define_ruler = {
				culture = east_harimari
				claim = 50
				male = yes
			}
		}
	}
}
country_event = { #If a Raj subject has an heir that isn't a harimari
	id = rahenraj.6
	title = rahenraj.6.t
	desc = rahenraj.6.d
	picture = FORT_eventPicture
	
	trigger = {
		OR = {
			has_reform = jamindar_reform
			has_reform = great_jamindar_reform
		}
		OR = {
			ruler_culture = west_harimari
			ruler_culture = east_harimari
		}
		NOT = {
			heir_culture = west_harimari
			heir_culture = east_harimari
		}
	}
	is_triggered_only = yes
	
	option = { #Keep Current Heir
		ai_chance = { factor = 0 }
		name = rahenraj.5.a
		
		add_prestige = 10
		add_heir_claim = 20
	}
	option = { #Change Heir
		ai_chance = { factor = 5 }
		name = rahenraj.5.b
		
		if = {
			limit = { ruler_culture = west_harimari }
			define_heir = {
				culture = west_harimari
				claim = 50
				male = yes
				no_consort_with_heir = yes
			}
		}
		else_if = {
			limit = { ruler_culture = east_harimari }
			define_heir = {
				culture = east_harimari
				claim = 50
				male = yes
				no_consort_with_heir = yes
			}
		}
	}
}



###########################
### Reforming the court ###
###########################

#Reform the military
country_event = {
	id = rahenraj.7
	title = rahenraj.7.t
	desc = rahenraj.7.d
	picture = FORT_eventPicture
	
	trigger = { capital = 4411 }
	
	major = yes
	is_triggered_only = yes
	
	option = { #Sack all current commanders
		ai_chance = { factor = 1 }
		name = rahenraj.7.a
		
		add_army_tradition = -50
		add_army_professionalism = -0.5
		if = {
			limit = { num_of_generals = 1 }
			kill_leader = { type = general }
		}
		else_if = {
			limit = { num_of_generals = 2 }
			kill_leader = { type = general }
			kill_leader = { type = general }
		}
		else_if = {
			limit = { num_of_generals = 3 }
			kill_leader = { type = general }
			kill_leader = { type = general }
			kill_leader = { type = general }
		}
		add_country_modifier = {
			name = rahen_insecure_officer_jobs
			duration = 1825 #5 years
		}
		add_country_modifier = {
			name = rahen_disorganised_military
			duration = 9125 #25 years
		}
		4411 = { remove_province_modifier = rahen_disloyal_officers }
		hidden_effect = {
			country_event = {
				id = rahenraj.8
				days = 30
				random = 60
			}
			country_event = {
				id = rahenraj.9
				days = 30
				random = 60
			}
		}
		random = { 
			chance = 75 

			4411 = {
				spawn_rebels = {
					type = pretender_rebels
					size = 1
				}
			}
			add_manpower = -10	
		}
	}
	option = { #Investigate each individual commander's loyalty
		ai_chance = { factor = 2 }
		name = rahenraj.7.b
		
		hidden_effect = {
			country_event = {
				id = rahenraj.13
				days = 120
				random = 240
			}
		}
	}
	option = { #Nevermind, this will be too disruptive
		ai_chance = { factor = 1 }
		name = rahenraj.7.c
		
		add_stability = 1
		remove_country_modifier = rahen_court_reformations
	}
}
country_event = { #How do we want to find new officers?
	id = rahenraj.8
	title = rahenraj.8.t
	desc = rahenraj.8.d
	picture = FORT_eventPicture
	
	trigger = { capital = 4411 }
	
	is_triggered_only = yes
	
	option = { #Look for new commanders under the great families
		ai_chance = { factor = 1 }
		name = rahenraj.8.a
		
		add_estate_influence_modifier = {
			estate = estate_nobles
			desc = EST_VAL_NOBLES_RAHEN_RECRUITING_FROM_NOBILITY
			influence = 10
			duration = 7300 #20 years
		}
		add_estate_loyalty_modifier = {
			estate = estate_nobles
			desc = EST_VAL_NOBLES_RAHEN_RECRUITING_FROM_NOBILITY
			loyalty = 10
			duration = 7300 #20 years
		}
		hidden_effect = {
			country_event = {
				id = rahenraj.10
				days = 120
				random = 1200
			}
		}
	}
	option = { #Recruit from the best warriors, host a public contest in exactly a year
		ai_chance = { factor = 1 }
		name = rahenraj.8.b
		
		hidden_effect = {
			country_event = {
				id = rahenraj.11
				days = 365
				random = 3
			}
		}
	}
}
country_event = { #How do we want to ensure the loyalty of these new officers?
	id = rahenraj.9
	title = rahenraj.9.t
	desc = rahenraj.9.d
	picture = FORT_eventPicture
	
	trigger = { capital = 4411 }
	
	is_triggered_only = yes
	
	option = { #Soldiers are loyal to coin
		ai_chance = { factor = 1 }
		name = rahenraj.9.a
		
		add_country_modifier = {
			name = rahen_soldiers_are_loyal_to_gold
			duration = 9125 #25 years
		}
	}
	option = { #Hand pick them to ensure they are personally loyal to the Raja
		ai_chance = { factor = 1 }
		name = rahenraj.9.b
		
		add_country_modifier = {
			name = rahen_hand_picked_commanders
			duration = 9125 #25 years
		}
	}
}
country_event = { #Noble families propose candidates
	id = rahenraj.10
	title = rahenraj.10.t
	desc = rahenraj.10.d
	picture = FORT_eventPicture
	
	trigger = { capital = 4411 }
	
	is_triggered_only = yes
	
	immediate = {
		hidden_effect = {
			country_event = {
				id = rahenraj.17
				days = 730 #2 years
				random = 365
			}
		}
	}
	
	option = { #The great warrior
		ai_chance = { factor = 1 }
		name = rahenraj.10.a
		
		add_corruption = 2
		create_general = {
			tradition = 60
			add_shock = 3
		}
		add_estate_influence_modifier = {
			estate = estate_nobles
			desc = EST_VAL_NOBLES_RAHEN_NOBLE_OFFICERS
			influence = 10
			duration = 9125 #25 years
		}
		if = {
			limit = { has_country_modifier = rahen_soldiers_are_loyal_to_gold }
			add_years_of_income = -1
		}
		else_if = {
			limit = { has_country_modifier = rahen_hand_picked_commanders }
			add_mil_power = -100
		}
	}
	option = { #The leader of troops
		ai_chance = { factor = 1 }
		name = rahenraj.10.b
		
		add_corruption = 2
		create_general = {
			tradition = 40
		}
		add_country_modifier = {
			name = rahen_charismatic_marshal
			duration = 7300 #20 years
		}
		add_estate_influence_modifier = {
			estate = estate_nobles
			desc = EST_VAL_NOBLES_RAHEN_NOBLE_OFFICERS
			influence = 10
			duration = 9125 #25 years
		}
		if = {
			limit = { has_country_modifier = rahen_soldiers_are_loyal_to_gold }
			add_years_of_income = -1
		}
		else_if = {
			limit = { has_country_modifier = rahen_hand_picked_commanders }
			add_mil_power = -100
		}
	}
	option = { #The student of war
		ai_chance = { factor = 1 }
		name = rahenraj.10.c
		
		add_corruption = 2
		define_advisor = {
			type = commandant
			skill = 2
			discount = yes
			culture = ROOT
			religion = ROOT
		}
		country_event = {
			id = rahenraj.12
			days = 365
			random = 1825 #5 years
		}
		add_estate_influence_modifier = {
			estate = estate_nobles
			desc = EST_VAL_NOBLES_RAHEN_NOBLE_OFFICERS
			influence = 10
			duration = 9125 #25 years
		}
		if = {
			limit = { has_country_modifier = rahen_soldiers_are_loyal_to_gold }
			add_years_of_income = -1
		}
		else_if = {
			limit = { has_country_modifier = rahen_hand_picked_commanders }
			add_mil_power = -100
		}
	}
	option = { #None are fitting, we will rely on the common soldier
		ai_chance = { factor = 1 }
		name = rahenraj.10.dd
		
		create_general = {
			tradition = 30
			culture = ROOT
		}
		add_estate_influence_modifier = {
			estate = estate_nobles
			desc = EST_VAL_NOBLES_RAHEN_COMMON_OFFICERS
			influence = -10
			duration = 9125 #25 years
		}
		if = {
			limit = { has_country_modifier = rahen_soldiers_are_loyal_to_gold }
			add_years_of_income = -1
		}
		else_if = {
			limit = { has_country_modifier = rahen_hand_picked_commanders }
			add_mil_power = -100
		}
	}
}
country_event = { #A winner of the great contest
	id = rahenraj.11
	title = rahenraj.11.t
	desc = rahenraj.11.d
	picture = FORT_eventPicture
	
	trigger = { capital = 4411 }
	
	is_triggered_only = yes
	
	immediate = {
		hidden_effect = {
			country_event = {
				id = rahenraj.17
				days = 730 #2 years
				random = 365
			}
		}
	}
	
	option = { #We must have this man lead our armies!
		ai_chance = { factor = 1 }
		name = rahenraj.11.a
		
		add_stability = -1
		add_legitimacy = -20
		create_general = {
			tradition = 60
			add_shock = 3
			add_manuever = 2
			add_siege = 1
		}
		if = {
			limit = { has_country_modifier = rahen_soldiers_are_loyal_to_gold }
			add_years_of_income = -1
		}
		else_if = {
			limit = { has_country_modifier = rahen_hand_picked_commanders }
			add_mil_power = -100
		}
	}
	option = { #This man will lead the imperial bodyguard!
		ai_chance = { factor = 1 }
		name = rahenraj.11.b
		
		define_advisor = {
			type = grand_captain
			skill = 2
			discount = yes
		}
		country_event = {
			id = rahenraj.12
			days = 1825 #5 years
			random = 1825
		}
		add_stability = -1
		add_legitimacy = -20
		if = {
			limit = { has_country_modifier = rahen_soldiers_are_loyal_to_gold }
			add_years_of_income = -1
		}
		else_if = {
			limit = { has_country_modifier = rahen_hand_picked_commanders }
			add_mil_power = -100
		}
	}
	option = { #His skill might be great, but his lack of noble blood is discouraging
		ai_chance = { factor = 1 }
		name = rahenraj.11.c
		
		create_general = {
			tradition = 30
			culture = ROOT
		}
		add_estate_influence_modifier = {
			estate = estate_nobles
			desc = EST_VAL_NOBLES_RAHEN_NOBLE_OFFICERS
			influence = 10
			duration = 9125 #25 years
		}
		if = {
			limit = { has_country_modifier = rahen_soldiers_are_loyal_to_gold }
			add_years_of_income = -1
		}
		else_if = {
			limit = { has_country_modifier = rahen_hand_picked_commanders }
			add_mil_power = -100
		}
	}
}
country_event = { #New general organises the military
	id = rahenraj.12
	title = rahenraj.12.t
	desc = rahenraj.12.d
	picture = FORT_eventPicture
	
	trigger = { capital = 4411 }
	
	is_triggered_only = yes
	
	option = { #Finally, structure!
		ai_chance = { factor = 1 }
		name = rahenraj.12.a
		
		remove_country_modifier = rahen_disorganised_military
	}
}
country_event = { #How do we want to test our commanders' loyalty?
	id = rahenraj.13
	title = rahenraj.13.t
	desc = rahenraj.13.d
	picture = FORT_eventPicture
	
	trigger = { capital = 4411 }
	
	is_triggered_only = yes
	
	option = { #Gather intelligence on each commander
		ai_chance = { factor = 1 }
		name = rahenraj.13.a
		
		add_country_modifier = {
			name = rahen_internal_military_monitoring
			duration = 18250 #50 years
		}
		hidden_effect = {
			country_event = {
				id = rahenraj.14
				days = 365
				random = 365
			}
		}
	}
	option = { #Devise a test
		ai_chance = { factor = 1 }
		name = rahenraj.13.b
		
		add_mil_power = -100
		
		hidden_effect = {
			country_event = {
				id = rahenraj.15
				days = 365
				random = 365
			}
		}
	}
}
country_event = { #The most loyal have been filtered out and the disloyal have been put on a list
	id = rahenraj.14
	title = rahenraj.14.t
	desc = rahenraj.14.d
	picture = FORT_eventPicture
	
	trigger = { capital = 4411 }
	
	is_triggered_only = yes
	
	immediate = {
		hidden_effect = {
			country_event = {
				id = rahenraj.17
				days = 730 #2 years
				random = 365
			}
		}
	}
	
	option = { #Reward the most loyal ones to promote good behaviour
		ai_chance = { factor = 1 }
		name = rahenraj.14.a
		
		add_country_modifier = {
			name = rahen_rewarding_loyal_officers
			duration = 9125 #25 years
		}
	}
	option = { #Sack the most disloyal and blackmail the other dissenters to have them fall in line
		ai_chance = { factor = 1 }
		name = rahenraj.14.b
		
		add_country_modifier = {
			name = rahen_blackmailing_disloyal_officers
			duration = 9125 #25 years
		}
	}
}
country_event = { #The test preparations have been finished
	id = rahenraj.15
	title = rahenraj.15.t
	desc = rahenraj.15.d
	picture = FORT_eventPicture
	
	trigger = { capital = 4411 }
	
	is_triggered_only = yes
	
	immediate = {
		hidden_effect = {
			country_event = {
				id = rahenraj.16
				days = 1825 #5 years
				random = 365
			}
		}
	}
	
	option = { #Commence the tests
		ai_chance = { factor = 1 }
		name = rahenraj.15.a
		
	}
}
country_event = { #The test has been concluded
	id = rahenraj.16
	title = rahenraj.16.t
	desc = rahenraj.16.d
	picture = FORT_eventPicture
	
	trigger = { capital = 4411 }
	
	is_triggered_only = yes
	
	immediate = {
		hidden_effect = {
			country_event = {
				id = rahenraj.17
				days = 730 #2 years
				random = 365
			}
		}
	}
	
	option = { #Make rank adjustments as appropriate
		ai_chance = { factor = 1 }
		name = rahenraj.16.a
		
	}
}
country_event = { #Officers have fallen in line
	id = rahenraj.17
	title = rahenraj.17.t
	desc = rahenraj.17.d
	picture = FORT_eventPicture
	
	trigger = { capital = 4411 }
	
	is_triggered_only = yes
	
	option = { #After a rigorous program of reforms we have now managed to ensure the loyalty of our officer corps
		ai_chance = { factor = 1 }
		name = rahenraj.17.a
		
		4411 = { remove_province_modifier = rahen_disloyal_officers }
		remove_country_modifier = rahen_court_reformations
	}
}

#Reform the ministry
country_event = {
	id = rahenraj.20
	title = rahenraj.20.t
	desc = rahenraj.20.d
	picture = FORT_eventPicture
	
	trigger = { capital = 4411 }
	
	major = yes
	is_triggered_only = yes
	
	option = { #Found the Board of Inquiry
		ai_chance = { factor = 1 }
		name = rahenraj.20.a
		
		add_country_modifier = {
			name = rahen_board_of_inquiry
			duration = -1
		}
		hidden_effect = {
			country_event = {
				id = rahenraj.21
				days = 15
				random = 60
			}
		}
	}
	option = { #Dismiss the ministries
		ai_chance = { factor = 1 }
		name = rahenraj.20.b
		
		4411 = { remove_province_modifier = rahen_corrupt_ministers }
		remove_country_modifier = rahen_court_reformations
		add_country_modifier = {
			name = rahen_despotic_rule
			duration = 18250 #50 years
		}
		
		add_country_modifier = {
			name = rahen_dismissed_ministries
			duration = 10950 #30 years
		}
		add_country_modifier = {
			name = rahen_ministry_of_agriculture_dismissed
			duration = 10950 #30 years
		}
		add_country_modifier = {
			name = rahen_ministry_of_philosophy_dismissed
			duration = 10950 #30 years
		}
		add_country_modifier = {
			name = rahen_ministry_of_commerce_dismissed
			duration = 10950 #30 years
		}
		add_country_modifier = {
			name = rahen_ministry_of_infrastructure_dismissed
			duration = 10950 #30 years
		}
		add_country_modifier = {
			name = rahen_ministry_of_justice_dismissed
			duration = 10950 #30 years
		}
		
		hidden_effect = {
			every_subject_country = {
				add_country_modifier = {
					name = rahen_ministry_of_agriculture_dismissed
					duration = 3650 #10 years
				}
				add_country_modifier = {
					name = rahen_ministry_of_philosophy_dismissed
					duration = 3650 #10 years
				}
				add_country_modifier = {
					name = rahen_ministry_of_commerce_dismissed
					duration = 3650 #10 years
				}
				add_country_modifier = {
					name = rahen_ministry_of_infrastructure_dismissed
					duration = 3650 #10 years
				}
				add_country_modifier = {
					name = rahen_ministry_of_justice_dismissed
					duration = 3650 #10 years
				}
			}
			
			country_event = {
				id = rahenraj.27
				days = 1825
				random = 3650
			}
			country_event = {
				id = rahenraj.28
				days = 1825
				random = 3650
			}
			country_event = {
				id = rahenraj.29
				days = 1825
				random = 3650
			}
			country_event = {
				id = rahenraj.30
				days = 1825
				random = 3650
			}
			country_event = {
				id = rahenraj.31
				days = 1825
				random = 3650
			}
		}
	}
}
country_event = { #What should the approach of the board be?
	id = rahenraj.21
	title = rahenraj.21.t
	desc = rahenraj.21.d
	picture = FORT_eventPicture
	
	trigger = { capital = 4411 }
	
	is_triggered_only = yes
	
	option = { #Supervision of the ministries
		ai_chance = { factor = 1 }
		name = rahenraj.21.a
		
		add_country_modifier = {
			name = rahen_supervised_ministries
			duration = 9125 #25 years
		}
		hidden_effect = {
			country_event = {
				id = rahenraj.22
				days = 730
				random = 1095
			}
		}
	}
	option = { #The purging of misbehaving ministers
		ai_chance = { factor = 1 }
		name = rahenraj.21.b
		
		
		add_country_modifier = {
			name = rahen_purging_policy
			duration = 5475 #15 years
		}
		hidden_effect = {
			country_event = {
				id = rahenraj.22
				days = 365
				random = 365
			}
		}
	}
}
country_event = { #The first steps
	id = rahenraj.22
	title = rahenraj.22.t
	desc = rahenraj.22.d
	picture = FORT_eventPicture
	
	trigger = { capital = 4411 }
	
	is_triggered_only = yes
	
	option = { #It'll be a while
		ai_chance = { factor = 1 }
		name = rahenraj.22.a
		
		add_country_modifier = {
			name = rahen_restoring_ministry_1
			duration = -1
		}
		
		if = {
			limit = { has_country_modifier = rahen_supervised_ministries }
			add_adm_power = -50
			add_prestige = -10
		}
		else_if = {
			limit = { has_country_modifier = rahen_purging_policy }
			add_adm_power = -100
			random = {
				chance = 33
				4411 = {
					spawn_rebels = {
						type = noble_rebels
						size = 1
					}
				}
			}
			random = {
				chance = 33
				add_stability = -1
			}
		}
		
		hidden_effect = {
			if = {
				limit = { has_country_modifier = rahen_supervised_ministries }
				country_event = {
					id = rahenraj.23
					days = 730
					random = 1095
				}
			}
			else_if = {
				limit = { has_country_modifier = rahen_purging_policy }
				country_event = {
					id = rahenraj.23
					days = 365
					random = 365
				}
			}
		}
	}
}
country_event = { #We're seeing improvement
	id = rahenraj.23
	title = rahenraj.23.t
	desc = rahenraj.23.d
	picture = FORT_eventPicture
	
	trigger = { capital = 4411 }
	
	is_triggered_only = yes
	
	option = { #Good, good
		ai_chance = { factor = 1 }
		name = rahenraj.23.a
		
		add_country_modifier = {
			name = rahen_restoring_ministry_2
			duration = -1
		}
		remove_country_modifier = rahen_restoring_ministry_1
		
		if = {
			limit = { has_country_modifier = rahen_supervised_ministries }
			add_adm_power = -50
			add_prestige = -10
		}
		else_if = {
			limit = { has_country_modifier = rahen_purging_policy }
			add_adm_power = -100
			random = {
				chance = 33
				4411 = {
					spawn_rebels = {
						type = noble_rebels
						size = 1
					}
				}
			}
			random = {
				chance = 33
				add_stability = -1
			}
		}
		
		hidden_effect = {
			if = {
				limit = { has_country_modifier = rahen_supervised_ministries }
				country_event = {
					id = rahenraj.24
					days = 730
					random = 1095
				}
			}
			else_if = {
				limit = { has_country_modifier = rahen_purging_policy }
				country_event = {
					id = rahenraj.24
					days = 365
					random = 365
				}
			}
		}
	}
}
country_event = { #A high level suspect
	id = rahenraj.24
	title = rahenraj.24.t
	desc = rahenraj.24.d
	picture = FORT_eventPicture
	
	trigger = { capital = 4411 }
	
	is_triggered_only = yes
	
	option = { #Glad that's rooted out
		ai_chance = { factor = 1 }
		name = rahenraj.24.a
		
		add_country_modifier = {
			name = rahen_restoring_ministry_3
			duration = -1
		}
		remove_country_modifier = rahen_restoring_ministry_2
		
		if = {
			limit = { has_country_modifier = rahen_supervised_ministries }
			add_adm_power = -50
			add_prestige = -10
		}
		else_if = {
			limit = { has_country_modifier = rahen_purging_policy }
			add_adm_power = -100
			random = {
				chance = 33
				4411 = {
					spawn_rebels = {
						type = noble_rebels
						size = 1
					}
				}
			}
			random = {
				chance = 33
				add_stability = -1
			}
		}
		
		hidden_effect = {
			if = {
				limit = { has_country_modifier = rahen_supervised_ministries }
				country_event = {
					id = rahenraj.25
					days = 730
					random = 1095
				}
			}
			else_if = {
				limit = { has_country_modifier = rahen_purging_policy }
				country_event = {
					id = rahenraj.25
					days = 365
					random = 365
				}
			}
		}
	}
}
country_event = { #Functioning ministries
	id = rahenraj.25
	title = rahenraj.25.t
	desc = rahenraj.25.d
	picture = FORT_eventPicture
	
	trigger = { capital = 4411 }
	
	is_triggered_only = yes
	
	option = { #We're almost there
		ai_chance = { factor = 1 }
		name = rahenraj.25.a
		
		add_country_modifier = {
			name = rahen_restoring_ministry_4
			duration = -1
		}
		remove_country_modifier = rahen_restoring_ministry_3
		
		hidden_effect = {
			if = {
				limit = { has_country_modifier = rahen_supervised_ministries }
				country_event = {
					id = rahenraj.26
					days = 730
					random = 1095
				}
			}
			else_if = {
				limit = { has_country_modifier = rahen_purging_policy }
				country_event = {
					id = rahenraj.26
					days = 365
					random = 365
				}
			}
		}
	}
}
country_event = { #The ministries have been cleansed
	id = rahenraj.26
	title = rahenraj.26.t
	desc = rahenraj.26.d
	picture = FORT_eventPicture
	
	trigger = { capital = 4411 }
	
	is_triggered_only = yes
	
	option = { #Splendid
		ai_chance = { factor = 1 }
		name = rahenraj.26.a
		
		remove_country_modifier = rahen_restoring_ministry_4
		4411 = { remove_province_modifier = rahen_corrupt_ministers }
		remove_country_modifier = rahen_court_reformations
		remove_country_modifier = rahen_board_of_inquiry
	}
}
country_event = { #Restoreing the ministry of agriculture
	id = rahenraj.27
	title = rahenraj.27.t
	desc = rahenraj.27.d
	picture = FORT_eventPicture
	
	trigger = { capital = 4411 }
	
	is_triggered_only = yes
	
	option = { #Let's build them up
		ai_chance = { factor = 2 }
		name = rahenraj.27.a
		
		remove_country_modifier = rahen_ministry_of_agriculture_dismissed
		hidden_effect = {
			every_subject_country = {
				remove_country_modifier = rahen_ministry_of_agriculture_dismissed
			}
		}
		
		define_advisor = {
			type = natural_scientist
			skill = 2
			discount = yes
		}
		
		if = {
			limit = { has_country_modifier = rahen_deminished_despotic_rule_4 }
			remove_country_modifier = rahen_deminished_despotic_rule_4
		}
		else_if = {
			limit = { has_country_modifier = rahen_deminished_despotic_rule_3 }
			remove_country_modifier = rahen_deminished_despotic_rule_3
			add_country_modifier = {
				name = rahen_deminished_despotic_rule_4
				duration = 18250
			}
		}
		else_if = {
			limit = { has_country_modifier = rahen_deminished_despotic_rule_2 }
			remove_country_modifier = rahen_deminished_despotic_rule_2
			add_country_modifier = {
				name = rahen_deminished_despotic_rule_3
				duration = 18250
			}
		}
		else_if = {
			limit = { has_country_modifier = rahen_deminished_despotic_rule_1 }
			remove_country_modifier = rahen_deminished_despotic_rule_1
			add_country_modifier = {
				name = rahen_deminished_despotic_rule_2
				duration = 18250
			}
		}
		else_if = {
			limit = { has_country_modifier = rahen_despotic_rule }
			remove_country_modifier = rahen_despotic_rule
			add_country_modifier = {
				name = rahen_deminished_despotic_rule_1
				duration = 18250
			}
		}
	}
	
	option = { #We don't need them
		ai_chance = { factor = 1 }
		name = rahenraj.27.b
		
		hidden_effect = {
			if = {
				limit = { has_country_flag = rahen_ministries_disbanded_2 }
				
				country_event = {
					id = rahenraj.32
					days = 365
					random = 365
				}
			}
			else_if = {
				limit = { has_country_flag = rahen_ministries_disbanded_1 }
				set_country_flag = rahen_ministries_disbanded_2
			}
			else = {
				set_country_flag = rahen_ministries_disbanded_1
			}
		}
	}
}
country_event = { #Restoreing the ministry of philosophy
	id = rahenraj.28
	title = rahenraj.28.t
	desc = rahenraj.28.d
	picture = FORT_eventPicture
	
	trigger = { capital = 4411 }
	
	is_triggered_only = yes
	
	option = { #Let's build them up
		ai_chance = { factor = 2 }
		name = rahenraj.28.a
		
		remove_country_modifier = rahen_ministry_of_philosophy_dismissed
		hidden_effect = {
			every_subject_country = {
				remove_country_modifier = rahen_ministry_of_philosophy_dismissed
			}
		}
		
		define_advisor = {
			type = philosopher
			skill = 2
			discount = yes
		}
		
		if = {
			limit = { has_country_modifier = rahen_deminished_despotic_rule_4 }
			remove_country_modifier = rahen_deminished_despotic_rule_4
		}
		else_if = {
			limit = { has_country_modifier = rahen_deminished_despotic_rule_3 }
			remove_country_modifier = rahen_deminished_despotic_rule_3
			add_country_modifier = {
				name = rahen_deminished_despotic_rule_4
				duration = 18250
			}
		}
		else_if = {
			limit = { has_country_modifier = rahen_deminished_despotic_rule_2 }
			remove_country_modifier = rahen_deminished_despotic_rule_2
			add_country_modifier = {
				name = rahen_deminished_despotic_rule_3
				duration = 18250
			}
		}
		else_if = {
			limit = { has_country_modifier = rahen_deminished_despotic_rule_1 }
			remove_country_modifier = rahen_deminished_despotic_rule_1
			add_country_modifier = {
				name = rahen_deminished_despotic_rule_2
				duration = 18250
			}
		}
		else_if = {
			limit = { has_country_modifier = rahen_despotic_rule }
			remove_country_modifier = rahen_despotic_rule
			add_country_modifier = {
				name = rahen_deminished_despotic_rule_1
				duration = 18250
			}
		}
	}
	
	option = { #We don't need them
		ai_chance = { factor = 1 }
		name = rahenraj.28.b
		
		hidden_effect = {
			if = {
				limit = { has_country_flag = rahen_ministries_disbanded_2 }
				
				country_event = {
					id = rahenraj.32
					days = 365
					random = 365
				}
			}
			else_if = {
				limit = { has_country_flag = rahen_ministries_disbanded_1 }
				set_country_flag = rahen_ministries_disbanded_2
			}
			else = {
				set_country_flag = rahen_ministries_disbanded_1
			}
		}
	}
}
country_event = { #Restoreing the ministry of commerce
	id = rahenraj.29
	title = rahenraj.29.t
	desc = rahenraj.29.d
	picture = FORT_eventPicture
	
	trigger = { capital = 4411 }
	
	is_triggered_only = yes
	
	option = { #Let's build them up
		ai_chance = { factor = 2 }
		name = rahenraj.29.a
		
		remove_country_modifier = rahen_ministry_of_commerce_dismissed
		hidden_effect = {
			every_subject_country = {
				remove_country_modifier = rahen_ministry_of_commerce_dismissed
			}
		}
		
		define_advisor = {
			type = trader
			skill = 2
			discount = yes
		}
		
		if = {
			limit = { has_country_modifier = rahen_deminished_despotic_rule_4 }
			remove_country_modifier = rahen_deminished_despotic_rule_4
		}
		else_if = {
			limit = { has_country_modifier = rahen_deminished_despotic_rule_3 }
			remove_country_modifier = rahen_deminished_despotic_rule_3
			add_country_modifier = {
				name = rahen_deminished_despotic_rule_4
				duration = 18250
			}
		}
		else_if = {
			limit = { has_country_modifier = rahen_deminished_despotic_rule_2 }
			remove_country_modifier = rahen_deminished_despotic_rule_2
			add_country_modifier = {
				name = rahen_deminished_despotic_rule_3
				duration = 18250
			}
		}
		else_if = {
			limit = { has_country_modifier = rahen_deminished_despotic_rule_1 }
			remove_country_modifier = rahen_deminished_despotic_rule_1
			add_country_modifier = {
				name = rahen_deminished_despotic_rule_2
				duration = 18250
			}
		}
		else_if = {
			limit = { has_country_modifier = rahen_despotic_rule }
			remove_country_modifier = rahen_despotic_rule
			add_country_modifier = {
				name = rahen_deminished_despotic_rule_1
				duration = 18250
			}
		}
	}
	
	option = { #We don't need them
		ai_chance = { factor = 1 }
		name = rahenraj.29.b
		
		hidden_effect = {
			if = {
				limit = { has_country_flag = rahen_ministries_disbanded_2 }
				
				country_event = {
					id = rahenraj.32
					days = 365
					random = 365
				}
			}
			else_if = {
				limit = { has_country_flag = rahen_ministries_disbanded_1 }
				set_country_flag = rahen_ministries_disbanded_2
			}
			else = {
				set_country_flag = rahen_ministries_disbanded_1
			}
		}
	}
}
country_event = { #Restoreing the ministry of infrastructure
	id = rahenraj.30
	title = rahenraj.30.t
	desc = rahenraj.30.d
	picture = FORT_eventPicture
	
	trigger = { capital = 4411 }
	
	is_triggered_only = yes
	
	option = { #Let's build them up
		ai_chance = { factor = 2 }
		name = rahenraj.30.a
		
		remove_country_modifier = rahen_ministry_of_infrastructure_dismissed
		hidden_effect = {
			every_subject_country = {
				remove_country_modifier = rahen_ministry_of_infrastructure_dismissed
			}
		}
		
		define_advisor = {
			type = fortification_expert
			skill = 2
			discount = yes
		}
		
		if = {
			limit = { has_country_modifier = rahen_deminished_despotic_rule_4 }
			remove_country_modifier = rahen_deminished_despotic_rule_4
		}
		else_if = {
			limit = { has_country_modifier = rahen_deminished_despotic_rule_3 }
			remove_country_modifier = rahen_deminished_despotic_rule_3
			add_country_modifier = {
				name = rahen_deminished_despotic_rule_4
				duration = 18250
			}
		}
		else_if = {
			limit = { has_country_modifier = rahen_deminished_despotic_rule_2 }
			remove_country_modifier = rahen_deminished_despotic_rule_2
			add_country_modifier = {
				name = rahen_deminished_despotic_rule_3
				duration = 18250
			}
		}
		else_if = {
			limit = { has_country_modifier = rahen_deminished_despotic_rule_1 }
			remove_country_modifier = rahen_deminished_despotic_rule_1
			add_country_modifier = {
				name = rahen_deminished_despotic_rule_2
				duration = 18250
			}
		}
		else_if = {
			limit = { has_country_modifier = rahen_despotic_rule }
			remove_country_modifier = rahen_despotic_rule
			add_country_modifier = {
				name = rahen_deminished_despotic_rule_1
				duration = 18250
			}
		}
	}
	
	option = { #We don't need them
		ai_chance = { factor = 1 }
		name = rahenraj.30.b
		
		hidden_effect = {
			if = {
				limit = { has_country_flag = rahen_ministries_disbanded_2 }
				
				country_event = {
					id = rahenraj.32
					days = 365
					random = 365
				}
			}
			else_if = {
				limit = { has_country_flag = rahen_ministries_disbanded_1 }
				set_country_flag = rahen_ministries_disbanded_2
			}
			else = {
				set_country_flag = rahen_ministries_disbanded_1
			}
		}
	}
}
country_event = { #Restoreing the ministry of justice
	id = rahenraj.31
	title = rahenraj.31.t
	desc = rahenraj.31.d
	picture = FORT_eventPicture
	
	trigger = { capital = 4411 }
	
	is_triggered_only = yes
	
	option = { #Let's build them up
		ai_chance = { factor = 2 }
		name = rahenraj.31.a
		
		remove_country_modifier = rahen_ministry_of_justice_dismissed
		hidden_effect = {
			every_subject_country = {
				remove_country_modifier = rahen_ministry_of_justice_dismissed
			}
		}
		define_advisor = {
			type = theologian
			skill = 2
			discount = yes
		}
		
		if = {
			limit = { has_country_modifier = rahen_deminished_despotic_rule_4 }
			remove_country_modifier = rahen_deminished_despotic_rule_4
		}
		else_if = {
			limit = { has_country_modifier = rahen_deminished_despotic_rule_3 }
			remove_country_modifier = rahen_deminished_despotic_rule_3
			add_country_modifier = {
				name = rahen_deminished_despotic_rule_4
				duration = 18250
			}
		}
		else_if = {
			limit = { has_country_modifier = rahen_deminished_despotic_rule_2 }
			remove_country_modifier = rahen_deminished_despotic_rule_2
			add_country_modifier = {
				name = rahen_deminished_despotic_rule_3
				duration = 18250
			}
		}
		else_if = {
			limit = { has_country_modifier = rahen_deminished_despotic_rule_1 }
			remove_country_modifier = rahen_deminished_despotic_rule_1
			add_country_modifier = {
				name = rahen_deminished_despotic_rule_2
				duration = 18250
			}
		}
		else_if = {
			limit = { has_country_modifier = rahen_despotic_rule }
			remove_country_modifier = rahen_despotic_rule
			add_country_modifier = {
				name = rahen_deminished_despotic_rule_1
				duration = 18250
			}
		}
	}
	
	option = { #We don't need them
		ai_chance = { factor = 1 }
		name = rahenraj.31.b
		
		hidden_effect = {
			if = {
				limit = { has_country_flag = rahen_ministries_disbanded_2 }
				
				country_event = {
					id = rahenraj.32
					days = 365
					random = 365
				}
			}
			else_if = {
				limit = { has_country_flag = rahen_ministries_disbanded_1 }
				set_country_flag = rahen_ministries_disbanded_2
			}
			else = {
				set_country_flag = rahen_ministries_disbanded_1
			}
		}
	}
}
country_event = { #Collapse of the Raj
	id = rahenraj.32
	title = rahenraj.32.t
	desc = rahenraj.32.d
	picture = FORT_eventPicture
	
	trigger = { capital = 4411 }
	
	major = yes
	is_triggered_only = yes
	
	option = { #Oh boy
		ai_chance = { factor = 1 }
		name = rahenraj.32.a
		
		add_stability = -4
		every_subject_country = {
			every_owned_province = {
				add_claim = ROOT
			}
		}
		every_subject_country = {
			limit = {
				NOT = {
					AND = {
						capital_scope = { province_group = harimraj_core_lands }
						NOT = { liberty_desire = 50 }
					}
				}
			}
			grant_independence = yes
		}
		every_subject_country = {
			overlord = {
				create_subject = {
					subject_type = vassal
					subject = PREV
				}
			}
		}
		4411 = {
			remove_province_modifier = rahen_corrupt_ministers
			remove_province_modifier = rahen_powerful_nobility
			remove_province_modifier = rahen_arrogant_foreign_office
			remove_province_modifier = rahen_disloyal_officers
		}
		add_government_reform = autocracy_reform
		
		hidden_effect = {	
			remove_country_modifier = rahen_board_of_inquiry
			remove_country_modifier = rahen_restoring_ministry_1
			remove_country_modifier = rahen_restoring_ministry_2
			remove_country_modifier = rahen_restoring_ministry_3
			remove_country_modifier = rahen_restoring_ministry_4
		}
	}
}

#Reform the foreign office
country_event = {
	id = rahenraj.40
	title = rahenraj.40.t
	desc = rahenraj.40.d
	picture = FORT_eventPicture
	
	trigger = { capital = 4411 }
	
	major = yes
	is_triggered_only = yes
	
	option = { #Sack all diplomats
		ai_chance = { factor = 1 }
		name = rahenraj.40.a
		
		4411 = { remove_province_modifier = rahen_arrogant_foreign_office }
		remove_country_modifier = rahen_court_reformations
	}
	option = { #Re-educate the diplomats
		ai_chance = { factor = 1 }
		name = rahenraj.40.b
		
		4411 = { remove_province_modifier = rahen_arrogant_foreign_office }
		remove_country_modifier = rahen_court_reformations
	}
}

#Reform the Nobility
country_event = {
	id = rahenraj.50
	title = rahenraj.50.t
	desc = rahenraj.50.d
	picture = FORT_eventPicture
	
	trigger = { capital = 4411 }
	
	major = yes
	is_triggered_only = yes
	
	option = { #Demand oaths of fealty and appoint successors
		ai_chance = { factor = 1 }
		name = rahenraj.50.a
		
		hidden_effect = {	
			country_event = {
				id = rahenraj.51
				days = 7
			}
		}
	}
	#option = { #Make a tour of the provinces
	#	ai_chance = { factor = 1 }
	#	name = rahenraj.50.b
	#	
	#	hidden_effect = {
	#		country_event = {
	#			id = rahenraj.51
	#			days = 30
	#		}
	#	}
	#}
}
country_event = { #Hosting a national banquet and demand oaths of fealty
	id = rahenraj.51
	title = rahenraj.51.t
	desc = rahenraj.51.d
	picture = FORT_eventPicture
	
	trigger = { capital = 4411 }
	
	major = yes
	is_triggered_only = yes
	
	option = { #They will come to court or they are traitors
		ai_chance = { factor = 1 }
		name = rahenraj.51.a
		
		hidden_effect = {	
			every_subject_country = {
				country_event = {
					id = rahenraj.52
					days = 30
					random = 30
				}
			}
		
			country_event = {
				id = rahenraj.53
				days = 120
				random = 60
			}
		}
	}
}
country_event = { #The Raja demands we visit court to pledge our allegiance, he also wishes to appoint our heir
	id = rahenraj.52
	title = rahenraj.52.t
	desc = rahenraj.52.d
	picture = FORT_eventPicture
	
	is_triggered_only = yes
	
	option = { #We will bow down to the Raja's will
		ai_chance = { factor = 10 }
		name = rahenraj.52.a
		
		define_heir = {
			dynasty = ROOT
			age = 23
			adm = 3
			dip = 3
			mil = 3
			claim = 50
		}
	}
	option = { #Who does he think he is? He can come take our oath by force if he wants it!
		ai_chance = {
			factor = 1
			modifier = {
				factor = 0
				NOT = { liberty_desire = 30 }
			}
			modifier = {
				factor = 10
				liberty_desire = 50
			}
			modifier = {
				factor = 10
				liberty_desire = 80
			}
		}
		name = rahenraj.52.b
		hidden_effect = {
			overlord = { save_event_target_as = current_raja }
		}
		add_stability = -3
		add_government_reform = indep_jamindar_reform
		declare_war_with_cb = {
			who = event_target:current_raja
			casus_belli = cb_independence_war
		}
	}
}
country_event = { #All our subjects have either come and declared their oath, or they have proven their disloyalty
	id = rahenraj.53
	title = rahenraj.53.t
	desc = rahenraj.53.d
	picture = FORT_eventPicture
	
	trigger = { capital = 4411 }
	
	is_triggered_only = yes
	
	option = { #Good
		ai_chance = { factor = 1 }
		name = rahenraj.53.a
		
		remove_country_modifier = rahen_court_reformations
		4411 = { remove_province_modifier = rahen_powerful_nobility }
		add_country_modifier = {
			name = rahen_loyal_nobility
			duration = 9125 #25 years
		}
	}
}
