# Gawed - Westmoors vassal
vassal = {
	first = A13
	second = A24
	start_date = 1400.1.1
	end_date = 1500.1.1
}

#Gawed - North Viswall vassal
vassal = {
	first = A13
	second = A07
	start_date = 1443.2.6
	end_date = 1500.1.1
}

#Gawed - Pearview vassal
vassal = {
	first = A13
	second = A65
	start_date = 1443.2.6
	end_date = 1500.1.1
}